…
There are a few outliers in our numerical data. In particular, there are
a lot of outliers for the babyweight variable, with a few babies with
very high birthweights and a lot of babies with very low birthweights.

``` r
tibble(ncbirths)
```

    ## # A tibble: 1,000 × 13
    ##     fage  mage mature   weeks premie visits marital gained weight lowbi…¹ gender
    ##    <int> <int> <fct>    <int> <fct>   <int> <fct>    <int>  <dbl> <fct>   <fct> 
    ##  1    NA    13 younger…    39 full …     10 not ma…     38   7.63 not low male  
    ##  2    NA    14 younger…    42 full …     15 not ma…     20   7.88 not low male  
    ##  3    19    15 younger…    37 full …     11 not ma…     38   6.63 not low female
    ##  4    21    15 younger…    41 full …      6 not ma…     34   8    not low male  
    ##  5    NA    15 younger…    39 full …      9 not ma…     27   6.38 not low female
    ##  6    NA    15 younger…    38 full …     19 not ma…     22   5.38 low     male  
    ##  7    18    15 younger…    37 full …     12 not ma…     76   8.44 not low male  
    ##  8    17    15 younger…    35 premie      5 not ma…     15   4.69 low     male  
    ##  9    NA    16 younger…    38 full …      9 not ma…     NA   8.81 not low male  
    ## 10    20    16 younger…    37 full …     13 not ma…     52   6.94 not low female
    ## # … with 990 more rows, 2 more variables: habit <fct>, whitemom <fct>, and
    ## #   abbreviated variable name ¹​lowbirthweight
…
